<svg id="Layer_1" xmlns="http://www.w3.org/2000/svg" viewBox="0 0 52 52">
  <style>
    .st1{fill:#fff}
  </style>
  <circle cx="26" cy="26" r="25" fill="#fc4763"/>
  <path class="st1" d="M32.5 14L26 18.8V9.2l6.5 4.8z"/>
  <path class="st1" d="M30.5 9.2v2.3l3.4 2.5-3.4 2.5v2.3L37 14z"/>
  <path class="st1" d="M38 27.6c0 6.6-5.4 12-12 12s-12-5.4-12-12 5.4-12 12-12v-3.2c-8.4 0-15.2 6.8-15.2 15.2 0 8.4 6.8 15.2 15.2 15.2S41.2 36 41.2 27.6H38z"/>
  <path class="st1" d="M21.3 24.2h-1.5v-1.7h3.5v10.4h-2v-8.7zM31.6 24.2h-3.5l-.4 1.6c.2 0 .4-.1.7-.1 1.1 0 2.1.4 2.7 1 .8.8.9 1.9.9 2.5 0 1.1-.3 2-1.1 2.7-.8.8-1.7 1.1-2.9 1.1-.6 0-1.5 0-2.2-.4-.4-.2-.9-.5-1.3-.9l.7-1.7c.3.4.6.7 1.1.9.5.3 1 .4 1.5.4.9 0 1.3-.4 1.6-.6.3-.3.5-.8.5-1.5 0-.6-.2-1-.6-1.4-.5-.5-1.1-.5-1.6-.5-.7 0-1.5.2-2.2.7l1.2-5.5h4.8v1.7z"/>
</svg>
