<svg xmlns="http://www.w3.org/2000/svg" viewBox="0 0 34 34">
  <circle cx="17" cy="17" r="16" fill="#fc4763"/>
  <path d="M18.5 17l5.2-5.2c.4-.4.4-1.1 0-1.5-.4-.4-1.1-.4-1.5 0L17 15.5l-5.2-5.2c-.4-.4-1.1-.4-1.5 0-.4.4-.4 1.1 0 1.5l5.2 5.2-5.2 5.2c-.4.4-.4 1.1 0 1.5.2.2.5.3.8.3.3 0 .6-.1.8-.3l5.2-5.2 5.2 5.2c.2.2.5.3.8.3s.6-.1.8-.3c.4-.4.4-1.1 0-1.5L18.5 17z" fill="#fff"/>
</svg>
