<svg id="Layer_1" xmlns="http://www.w3.org/2000/svg" viewBox="0 0 52 52">
  <style>
    .st1{fill:#fff}
  </style>
  <circle cx="26" cy="26" r="25" fill="#fc4763"/>
  <path class="st1" d="M22 26l12.5 9.1V16.9zM17.5 16.9h1.8v18.2h-1.8z"/>
</svg>
