<svg id="Isolation_Mode" xmlns="http://www.w3.org/2000/svg" viewBox="0 0 52 52">
  <style>
    .st1{fill:#fff}
  </style>
  <circle cx="26" cy="26" r="25" fill="#fc4763"/>
  <path class="st1" d="M33.8 19c-.4-.4-1-.4-1.4 0l-5.2 4.9c-.3-.2-.7-.3-1.1-.3-1.3 0-2.4 1-2.4 2.3 0 1.3 1.1 2.3 2.4 2.3 1.3 0 2.4-1 2.4-2.3 0-.2 0-.3-.1-.5l5.4-5.1c.2-.2.3-.4.3-.7s-.1-.4-.3-.6z"/>
  <path class="st1" d="M37.1 14.9c-3-2.9-6.9-4.5-11.1-4.5-4.2 0-8.1 1.6-11.1 4.5s-4.6 6.8-4.6 10.9c0 3 .9 5.9 2.6 8.5l.1.1c.2.2.5.4 1 .4.3 0 .5-.1.6-.2.3-.1.5-.4.6-.7.1-.4 0-.7-.2-1-.2-.3-.4-.7-.6-1l.5-.2c.5-.3.9-.9.6-1.6-.1-.3-.4-.6-.7-.7-.3-.1-.7-.1-.9 0l-.5.2c-.3-.8-.4-1.7-.5-2.5h.5c.7 0 1.3-.6 1.3-1.2 0-.7-.6-1.3-1.3-1.3h-.5c.1-.9.3-1.7.5-2.5l.4.2c.2.1.5.1.5.1.5 0 .9-.3 1.2-.7.1-.3.2-.6.1-.9-.1-.3-.4-.6-.7-.8l-.5-.2c.4-.7.9-1.4 1.4-2.1l.4.4c.5.5 1.2.5 1.8 0 .3-.2.4-.6.4-.9 0-.3-.1-.6-.4-.9l-.4-.4c.7-.6 1.4-1 2.2-1.4l.2.5v.1c.3.4.7.6 1.2.6h.4c.3-.1.6-.4.7-.7.1-.3.1-.7 0-.9l-.2-.5c.8-.3 1.7-.4 2.6-.5v.5c0 .7.6 1.2 1.3 1.2.7 0 1.3-.6 1.3-1.2v-.5c.9.1 1.7.3 2.6.5l-.2.4c-.2.3-.2.7 0 1 .1.3.4.5.7.7h.5c.4 0 1-.3 1.1-.7l.2-.5c.8.4 1.5.9 2.2 1.4l-.4.3c-.5.5-.5 1.2-.1 1.7.2.4.7.5 1 .5.4 0 .7-.1.9-.4l.3-.4c.6.7 1 1.4 1.5 2.1l-.5.2c-.3.1-.6.4-.7.7-.1.3-.1.6 0 .9.2.5.6.8 1.2.8.1 0 .3 0 .5-.1l.4-.2c.2.8.4 1.7.5 2.5h-.5c-.7 0-1.3.5-1.3 1.2s.6 1.2 1.3 1.2h.5c-.1.8-.2 1.7-.5 2.5H38c-.7-.3-1.4 0-1.6.7-.1.3-.1.7 0 1 .1.3.4.5.7.7l.5.2c-.2.4-.4.7-.6 1-.2.3-.3.7-.2 1 .1.3.3.6.5.7.6.4 1.3.2 1.7-.3 1.7-2.5 2.6-5.5 2.6-8.5.1-4.2-1.6-8.1-4.5-11z"/>
</svg>
